<?xml version="1.0" encoding="utf-8"?>
<!-- Generator: Adobe Illustrator 24.2.3, SVG Export Plug-In . SVG Version: 6.00 Build 0)  -->
<svg version="1.1" id="Layer_1" xmlns="http://www.w3.org/2000/svg" xmlns:xlink="http://www.w3.org/1999/xlink" x="0px" y="0px"
	 viewBox="0 0 660.9 173.2" style="enable-background:new 0 0 660.9 173.2;" xml:space="preserve">
<style type="text/css">
	.st0{fill:#FFFFFF;}
	.st1{fill-rule:evenodd;clip-rule:evenodd;fill:#D54A4B;}
	.st2{fill-rule:evenodd;clip-rule:evenodd;fill:#CC7372;}
	.st3{fill-rule:evenodd;clip-rule:evenodd;fill:#C54A7C;}
	.st4{fill-rule:evenodd;clip-rule:evenodd;fill:#CA694A;}
</style>
<g>
	<path class="st0" d="M244.1,87.6c0,7.4-1.1,14-3.3,19.8c-2.2,5.8-5.2,10.7-9,14.7c-3.8,4-8.2,7.1-13.2,9.3
		c-5.1,2.1-10.5,3.2-16.2,3.2c-5.5,0-10.5-1.1-15-3.2c-4.5-2.1-8.5-4.9-11.9-8.3l-0.4,0.2v50.1h-27.5L148,40.8h25.5l0.4,11.9
		l0.4,0.2c3-3.4,7-6.3,12-8.7c5-2.4,10.5-3.6,16.5-3.6c5.5,0,10.7,1,15.7,3c5,2,9.4,5,13.2,9c3.8,4,6.8,8.9,9.1,14.7
		C243,73.1,244.1,79.9,244.1,87.6z M175.1,86.4c0,7.9,1.9,14.2,5.7,18.9c3.8,4.7,8.9,7,15.1,7c6.2,0,11.2-2.4,14.9-7.1
		c3.7-4.7,5.6-11,5.6-18.8s-1.9-14-5.7-18.6c-3.8-4.6-8.7-6.9-14.7-6.9c-6.6,0-11.8,2.4-15.4,7.1C176.9,72.7,175.1,78.8,175.1,86.4z
		"/>
	<path class="st0" d="M259.3,15.8c0-4.3,1.5-8,4.6-11.1c3-3.1,6.7-4.7,11-4.7c4.4,0,8.1,1.6,11.2,4.7c3,3.1,4.6,6.8,4.6,11.1
		c0,4.4-1.5,8.1-4.6,11.1c-3.1,3-6.8,4.5-11.2,4.5c-4.3,0-8-1.5-11-4.5C260.8,23.9,259.3,20.2,259.3,15.8z M261.7,134l-0.2-93.1H289
		l0.2,93.1H261.7z"/>
	<path class="st0" d="M331.8,87.4c0,4.3,0.6,8.1,1.8,11.3c1.2,3.2,2.7,5.9,4.6,8.1c1.9,2.1,4.1,3.8,6.6,4.9c2.5,1.1,5.2,1.7,7.9,1.7
		c4.4,0,8-0.9,10.8-2.8c2.8-1.9,5.7-5.2,8.7-9.8l19.1,11.1c-4.4,7.4-10,13-16.8,16.9s-14.4,5.8-22.7,5.8c-6.2,0-12.2-1.1-17.9-3.3
		c-5.7-2.2-10.7-5.4-15.1-9.4c-4.4-4.1-7.8-9-10.4-14.8c-2.6-5.8-3.9-12.3-3.9-19.6c0-7.3,1.3-13.8,3.9-19.6
		c2.6-5.8,6.1-10.7,10.4-14.7c4.3-4,9.4-7.1,15.1-9.3c5.7-2.1,11.7-3.2,17.9-3.2c8.3,0,15.9,1.9,22.7,5.8s12.4,9.5,16.8,16.9
		l-19.1,11.1c-1.7-2.9-4.1-5.7-7.1-8.5c-3.1-2.8-7.2-4.2-12.4-4.2c-6.2,0-11.3,2.4-15.1,7.1C333.7,73.7,331.8,79.8,331.8,87.4z"/>
	<path class="st0" d="M458,65.9c-2.4-0.5-4.5-0.8-6.3-0.8c-6,0-10.3,2.1-13,6.2c-2.7,4.2-4,9.5-4,16.2l0,46.5h-27.5l-0.1-93.3h25.7
		l0.7,13.1h0.4c3.6-4.5,7.5-7.9,11.6-10c4.1-2.1,8.2-3.2,12.4-3.2c2.3,0,4.5,0.3,6.5,0.8c2,0.5,3.9,1.2,5.7,2.1l-5.1,24.5
		C462.8,67.2,460.4,66.5,458,65.9z"/>
	<path class="st0" d="M476.7,87.4c0-6.7,1.2-13,3.5-18.7c2.3-5.7,5.6-10.6,9.9-14.8c4.3-4.2,9.4-7.4,15.5-9.7c6-2.3,12.7-3.5,20-3.5
		c7.3,0,13.9,1.2,19.9,3.5c6,2.3,11.1,5.6,15.4,9.7c4.3,4.2,7.6,9.1,9.9,14.8c2.3,5.7,3.5,11.9,3.5,18.7c0,6.8-1.2,13-3.5,18.8
		c-2.3,5.8-5.6,10.7-9.9,14.9c-4.3,4.2-9.4,7.4-15.4,9.8c-6,2.4-12.6,3.6-19.9,3.6c-7.3,0-13.9-1.2-20-3.6c-6-2.4-11.2-5.7-15.5-9.8
		c-4.3-4.2-7.6-9.1-9.9-14.9C477.9,100.4,476.7,94.1,476.7,87.4z M525.6,113.3c6.6,0,11.8-2.4,15.6-7.3c3.8-4.9,5.6-11.1,5.6-18.6
		c0-7.5-1.9-13.7-5.6-18.4c-3.8-4.7-9-7.1-15.6-7.1c-6.6,0-11.8,2.4-15.7,7.1c-3.8,4.7-5.7,10.9-5.7,18.4c0,7.5,1.9,13.7,5.7,18.6
		C513.8,110.8,519,113.3,525.6,113.3z"/>
	<path class="st0" d="M660.9,106.1c0,3.5-0.8,7-2.4,10.4c-1.6,3.4-4.1,6.5-7.3,9.2c-3.2,2.7-7.3,4.8-12.1,6.4
		c-4.8,1.6-10.3,2.4-16.6,2.4c-4.5,0-8.8-0.5-12.8-1.4c-4-0.9-7.6-2.1-10.9-3.5c-3.3-1.4-6.2-3-8.8-4.8c-2.5-1.8-4.6-3.5-6.3-5.4
		l13-16.2c3.6,3.8,7.7,6.7,12.2,8.9c4.5,2.1,9,3.2,13.5,3.2c3.8,0,6.7-0.8,8.7-2.3c2-1.6,3-3.4,3-5.5c0-2.7-1.6-4.8-4.7-6.2
		c-1.4-0.8-3-1.4-4.8-1.9c-1.8-0.5-3.5-1.1-5.4-1.8l-6-1.8c-2.7-0.8-5-1.6-6.9-2.3c-1.9-0.8-3.7-1.6-5.4-2.5
		c-4.9-2.6-8.5-5.5-10.7-8.9c-2.2-3.3-3.3-7.7-3.3-13.1c0-3.5,0.8-6.9,2.4-10.3c1.6-3.4,4-6.4,7.1-9.2c3.1-2.7,6.9-4.9,11.5-6.5
		c4.5-1.6,9.8-2.4,15.8-2.4c4.7,0,8.8,0.5,12.5,1.4c3.6,0.9,6.8,2,9.6,3.3c2.8,1.3,5.2,2.8,7.3,4.4c2.1,1.6,3.9,3.1,5.5,4.4
		l-13,15.4c-2.6-2.6-5.9-4.9-9.9-6.8c-4-1.9-8.1-2.9-12.3-2.9c-3.1,0-5.7,0.7-7.8,2c-2.1,1.4-3.1,3.1-3.1,5.4c0,1.7,0.7,3.1,2,4.2
		c1.4,1.1,3,2,4.8,2.6c1.7,0.7,3.4,1.3,5.2,1.9c1.8,0.6,3.7,1.2,5.9,1.8l6.2,1.9c3.4,1,6.7,2.4,10.1,4.2c3.4,1.8,6.3,4,8.8,6.7
		C659.1,94.4,660.9,99.6,660.9,106.1z"/>
</g>
<path class="st1" d="M103.6,99.5h24.3V75.3h-24.3V99.5z M93.3,109.8H69.1v24.3h24.3V109.8z M93.3,40.7H69.1V65h24.3V40.7z"/>
<path class="st2" d="M103.6,40.7V65h24.3V40.7H103.6z M34.5,99.5h24.3V75.3H34.5V99.5z"/>
<path class="st3" d="M93.3,99.5V75.3H69.1v24.3H93.3z M24.3,40.7H0V65h24.3V40.7z"/>
<path class="st4" d="M34.5,40.7V65h24.3V40.7H34.5z M103.6,109.8v24.3h24.3v-24.3H103.6z"/>
</svg>
